Tile_0,Tile_1,Tile_2,Tile_3,Tile_4,Tile_5,Tile_6,Tile_7,Tile_8,Tile_9,Tile_10,Tile_11,Tile_12,Tile_13,Tile_14,Tile_15,Tile_16,Tile_17,Tile_18,Tile_19,Tile_20,Tile_21,Tile_22,Tile_23,Tile_24,Tile_25,Tile_26,Tile_27,Tile_28,Tile_29,Tile_30,Tile_31,Tile_32,Tile_33,Tile_34,Tile_35,Tile_36,Tile_37,Tile_38,Tile_39,Tile_40,Tile_41,Tile_42,Tile_43,Tile_44,Tile_45,Tile_46,Tile_47,Tile_48,Tile_49,Tile_50,Tile_51,Tile_52,Tile_53,Tile_54,Tile_55,Tile_56,Tile_57,Tile_58,Tile_59,Tile_60,Tile_61,Tile_62,Tile_63
4289,2455,3625,1692,4355,2450,3640,1801,4325,2459,3537,1718,4162,2438,3635,1757,4271,2377,3585,1795,4338,2522,3666,1842,4488,2413,3455,1595,4209,2445,3477,1781,4217,2357,3583,1787,4358,2525,3629,1830,4326,2523,3555,1641,4163,2442,3579,1783,4256,2353,3613,1747,4381,2463,3706,1871,4334,2503,3674,1791,4304,2483,3590,1835
4298,2515,3629,1696,4197,2384,3547,1753,4341,2487,3622,1698,4203,2508,3563,1686,4253,2437,3711,1747,4328,2349,3660,1816,4357,2577,3523,1627,4163,2521,3556,1636,4210,2340,3559,1727,4278,2455,3625,1769,4341,2498,3515,1682,4216,2445,3474,1735,4239,2351,3629,1714,4346,2452,3638,1878,4455,2470,3561,1806,4326,2367,3585,1746
4283,2453,3518,1672,4295,2462,3632,1743,4197,2492,3634,1686,4299,2439,3590,1743,4217,2427,3612,1767,4389,2411,3645,1815,4312,2431,3478,1697,4200,2425,3555,1776,4329,2422,3544,1763,4297,2464,3616,1785,4306,2423,3588,1684,4211,2502,3472,1849,4241,2408,3727,1740,4353,2299,3685,1805,4360,2475,3680,1759,4218,2446,3669,1736
4200,2415,3527,1623,4380,2520,3622,1660,4328,2483,3527,1715,4227,2481,3613,1818,4229,2428,3581,1677,4308,2454,3741,1871,4319,2480,3559,1651,4184,2400,3586,1704,4309,2273,3534,1671,4309,2427,3694,1787,4335,2513,3562,1696,4153,2522,3583,1759,4289,2315,3626,1752,4320,2447,3675,1840,4431,2490,3590,1739,4368,2493,3627,1750
